Soil science analyses
…
##       CSS 
## 0.1288881

OK, so the mean difference in mean soil density between CSS and CHAP is 0.13. Are the plant communities meaningfully different in terms of soil density though? Our null hypothesis would be that there is no difference in soil density between the plant communities.

Logically, if there is a meaningful difference, then if we shuffle our data around, that should lead to different results than what we see. That is one way to simulate statistics to test the null hypothesis. And specifically, in this case, we would expect to see our observed difference is much larger than most of the simulated values.

What does simulating our data look like?

Well, here is what the data look like initially:

soilDF[,c(1:4,19:21)]

## # A tibble: 28 x 7
##    SampleID Species Group CSS   PlantComm SoilDensity soilC
##    <chr>    <chr>   <dbl> <fct> <chr>           <dbl> <dbl>
##  1 Artcal1  Artcal      1 1     CSS             1.33  2.20 
##  2 Mallau1  Mallau      1 0     CHAP            1.08  2.64 
##  3 Salapi1  Salapi      1 1     CSS             1.39  2.37 
##  4 Samnig1  Samnig      1 0     CHAP            0.852 0.801
##  5 Artcal2  Artcal      2 1     CSS             0.946 7.26 
##  6 Mallau2  Mallau      2 0     CHAP            0.473 2.05 
##  7 Salapi2  Salapi      2 1     CSS             1.06  1.88 
##  8 Samnig2  Samnig      2 0     CHAP            1.16  2.19 
##  9 Artcal3  Artcal      3 1     CSS             0.691 1.57 
## 10 Mallau3  Mallau      3 0     CHAP            0.453 9.47 
## # … with 18 more rows

Here is what it looks like after we’ve “shuffled” it once by randomizing the PlantComm assignments. This is like taking a deck of cards with different SoilDensity or SoilC(arbon) values, and being able to change their color and suite (in this case, plant community associated with that card).

resample(soilDF[,c(1:4,19:21)],groups=PlantComm,shuffled=c("SoilDensity","soilC"))

## # A tibble: 28 x 8
##    SampleID Species Group CSS   PlantComm SoilDensity soilC orig.id 
##    <chr>    <chr>   <dbl> <fct> <chr>           <dbl> <dbl> <chr>   
##  1 Mallau6  Mallau      6 0     CHAP            0.901 3.36  22.28.28
##  2 Mallau4  Mallau      4 0     CHAP            1.08  2.72  14.2.24 
##  3 Mallau4  Mallau      4 0     CHAP            1.08  2.48  14.24.18
##  4 Samnig6  Samnig      6 0     CHAP            0.955 0.801 24.22.4 
##  5 Mallau5  Mallau      5 0     CHAP            0.875 2.48  18.14.18
##  6 Samnig1  Samnig      1 0     CHAP            0.453 9.47  4.10.10 
##  7 Mallau5  Mallau      5 0     CHAP            1.08  2.51  18.24.14
##  8 Samnig7  Samnig      7 0     CHAP            1.17  0.554 28.18.22
##  9 Samnig5  Samnig      5 0     CHAP            0.852 2.64  20.4.2  
## 10 Mallau3  Mallau      3 0     CHAP            0.453 2.51  10.10.14
## # … with 18 more rows

We can repeat that procedure again and see how the data shifts when we do another shuffle.

resample(soilDF[,c(1:4,19:21)],groups=PlantComm,shuffled=c("SoilDensity","soilC"))

## # A tibble: 28 x 8
##    SampleID Species Group CSS   PlantComm SoilDensity soilC orig.id 
##    <chr>    <chr>   <dbl> <fct> <chr>           <dbl> <dbl> <chr>   
##  1 Samnig4  Samnig      4 0     CHAP            0.852 9.47  16.4.10 
##  2 Samnig3  Samnig      3 0     CHAP            1.13  0.801 12.26.4 
##  3 Mallau7  Mallau      7 0     CHAP            0.852 2.72  26.4.24 
##  4 Samnig1  Samnig      1 0     CHAP            0.716 0.801 4.12.4  
##  5 Samnig3  Samnig      3 0     CHAP            0.716 2.51  12.12.26
##  6 Samnig4  Samnig      4 0     CHAP            0.716 6.64  16.12.12
##  7 Samnig1  Samnig      1 0     CHAP            1.03  0.801 4.16.4  
##  8 Samnig6  Samnig      6 0     CHAP            0.852 0.801 24.4.4  
##  9 Samnig1  Samnig      1 0     CHAP            1.03  6.64  4.16.12 
## 10 Samnig1  Samnig      1 0     CHAP            0.852 6.64  4.4.12  
## # … with 18 more rows
…
